[gd_scene format=2]

[node name="ColorRect" type="ColorRect"]
anchor_right = 1.0
anchor_bottom = 1.0
margin_right = -1.0
margin_bottom = -2.0
rect_min_size = Vector2( 774, 471 )
color = Color( 0.505882, 0.0470588, 0.0470588, 0.129412 )

[node name="HBoxContainer" type="HBoxContainer" parent="."]
anchor_right = 1.0
anchor_bottom = 1.0
rect_min_size = Vector2( 774, 471 )

[node name="HBoxContainer" type="HBoxContainer" parent="HBoxContainer"]
margin_right = 10.0
margin_bottom = 598.0
rect_min_size = Vector2( 10, 471 )

[node name="VBoxContainer" type="VBoxContainer" parent="HBoxContainer"]
margin_left = 14.0
margin_right = 394.0
margin_bottom = 598.0
rect_min_size = Vector2( 380, 598 )

[node name="VSeparator" type="VSeparator" parent="HBoxContainer"]
margin_left = 398.0
margin_right = 402.0
margin_bottom = 598.0

[node name="VBoxContainer2" type="VBoxContainer" parent="HBoxContainer"]
margin_left = 406.0
margin_right = 786.0
margin_bottom = 598.0
rect_min_size = Vector2( 380, 598 )
